4, 3149, 8, 0, 0, 0, 0, 83.333333, 63.571663
5, 0, 0, 0, 0, 0, 0, 70.000000, 89.556745
6, 16725, 15, 0, 0, 0, 0, 60.000000, 115.567830
7, 22736, 17, 0, 0, 0, 0, 52.380952, 141.598945
8, 0, 0, 0, 0, 0, 0, 46.428571, 167.616922
9, 0, 0, 0, 0, 0, 0, 41.666667, 193.656860
10, 120011, 30, 0, 0, 0, 0, 37.777778, 219.701490
11, 152421, 35, 0, 0, 0, 0, 34.545455, 245.728416
12, 232806, 48, 0, 0, 0, 0, 31.818182, 271.923812
13, 0, 0, 0, 0, 0, 0, 29.487179, 297.808553
14, 0, 0, 0, 0, 0, 0, 27.472527, 323.874399
15, 444391, 53, 0, 0, 0, 0, 25.714286, 350.018913
16, 0, 0, 0, 0, 0, 0, 24.166667, 375.978410
17, 879801, 77, 0, 0, 0, 0, 22.794118, 402.144589
18, 1043795, 70, 0, 0, 0, 0, 21.568627, 414.167152
19, 4622693, 218, 0, 0, 0, 0, 74.561404, 1680.942631
4, 1250, 5, 0, 0, 0, 0, 83.333333, 63.551408
5, 0, 0, 0, 0, 0, 0, 70.000000, 89.551161
6, 0, 0, 0, 0, 0, 0, 60.000000, 115.574360
7, 20546, 18, 0, 0, 0, 0, 52.380952, 141.594043
8, 0, 0, 0, 0, 0, 0, 46.428571, 167.616127
9, 0, 0, 0, 0, 0, 0, 41.666667, 193.678446
10, 40167, 13, 0, 0, 0, 0, 37.777778, 219.740116
11, 114583, 25, 0, 0, 0, 0, 34.545455, 245.729583
12, 184607, 38, 0, 0, 0, 0, 31.818182, 271.772794
13, 247824, 41, 0, 0, 0, 0, 29.487179, 297.865032
14, 334745, 46, 0, 0, 0, 0, 27.472527, 323.862206
15, 0, 0, 0, 0, 0, 0, 25.714286, 349.931268
16, 301521, 33, 0, 0, 0, 0, 24.166667, 376.017099
17, 962298, 74, 0, 0, 0, 0, 22.794118, 402.131399
18, 7550664, 10216, 0, 0, 0, 0, 44.771242, 974.582467
19, 0, 0, 0, 0, 0, 0, 74.561404, 1645.666812
4, 4041, 9, 0, 0, 0, 0, 83.333333, 63.540606
5, 0, 0, 0, 0, 0, 0, 70.000000, 89.554629
6, 0, 0, 0, 0, 0, 0, 60.000000, 115.592546
7, 12879, 13, 0, 0, 0, 0, 52.380952, 141.610003
8, 19038, 12, 0, 0, 0, 0, 46.428571, 167.620854
9, 0, 0, 0, 0, 0, 0, 41.666667, 193.678281
10, 0, 0, 0, 0, 0, 0, 37.777778, 219.707501
11, 0, 0, 0, 0, 0, 0, 34.545455, 245.737303
12, 172439, 29, 0, 0, 0, 0, 31.818182, 271.860043
13, 0, 0, 0, 0, 0, 0, 29.487179, 297.855317
14, 0, 0, 0, 0, 0, 0, 27.472527, 323.896534
15, 431664, 51, 0, 0, 0, 0, 25.714286, 349.924942
16, 283905, 31, 0, 0, 0, 0, 24.166667, 376.073728
17, 733607, 65, 0, 0, 0, 0, 22.794118, 402.163558
18, 2094692, 108, 0, 0, 0, 0, 23.529412, 464.163290
19, 0, 0, 0, 0, 0, 0, 77.777778, 1748.889480
4, 31, 36, 1, 105, 85, 0, 83.333333, 63.548312
5, 79, 89, 1, 178, 151, 0, 70.000000, 89.620291
6, 95, 111, 1, 230, 200, 0, 60.000000, 115.692048
7, 141, 166, 1, 335, 295, 0, 52.380952, 141.706524
8, 148, 179, 1, 457, 409, 0, 46.428571, 167.778822
9, 173, 213, 1, 569, 514, 0, 41.666667, 193.895928
10, 206, 252, 1, 752, 692, 0, 37.777778, 220.005366
11, 1321, 602, 0, 893, 826, 0, 34.545455, 246.063997
12, 467, 527, 1, 1084, 1010, 0, 31.818182, 272.218958
13, 331, 397, 1, 1213, 1132, 0, 29.487179, 298.337769
14, 373, 442, 1, 1473, 1387, 0, 27.472527, 324.501252
15, 518, 591, 0, 1709, 1621, 0, 25.714286, 350.699492
16, 484, 570, 0, 1923, 1823, 0, 24.166667, 376.853666
17, 548, 638, 1, 2199, 2092, 0, 22.794118, 403.081500
18, 618, 713, 1, 2433, 2323, 0, 21.568627, 429.356685
19, 683, 787, 2, 2685, 2566, 0, 20.467836, 455.613825
4, 2925, 730, 1, 102, 82, 0, 83.333333, 63.571906
5, 92, 104, 1, 163, 136, 0, 70.000000, 89.625395
6, 447, 360, 1, 232, 200, 0, 60.000000, 115.675854
7, 124, 148, 1, 357, 316, 0, 52.380952, 141.728626
8, 139, 170, 1, 457, 410, 0, 46.428571, 167.775825
9, 136, 172, 1, 565, 514, 0, 41.666667, 193.823871
10, 202, 241, 1, 717, 661, 0, 37.777778, 219.954587
11, 206, 258, 1, 860, 793, 0, 34.545455, 246.057556
12, 1476, 1008, 1, 1047, 974, 0, 31.818182, 272.204671
13, 321, 385, 1, 1252, 1171, 0, 29.487179, 298.416181
14, 373, 444, 1, 1475, 1387, 0, 27.472527, 324.486337
15, 430, 511, 1, 1672, 1577, 0, 25.714286, 350.707031
16, 1455, 1026, 3, 1876, 1777, 0, 24.166667, 376.915035
17, 542, 633, 0, 2149, 2042, 0, 22.794118, 403.064124
18, 631, 728, 1, 2491, 2378, 0, 21.568627, 429.270115
19, 682, 787, 1, 2686, 2566, 0, 20.467836, 455.568296
11, 189835, 6, 0, 0, 0, 0, 34.545455, 245.770203
16, 0, 0, 0, 0, 0, 0, 24.166667, 376.013583
17, 816723, 30, 0, 0, 0, 0, 22.794118, 402.118592
11, 0, 0, 0, 0, 0, 0, 34.545455, 245.749694
16, 0, 0, 0, 0, 0, 0, 24.166667, 375.990493
17, 0, 0, 0, 0, 0, 0, 22.794118, 395.108767
11, 0, 0, 0, 0, 0, 0, 34.545455, 245.797458
16, 0, 0, 0, 0, 0, 0, 24.166667, 375.921655
17, 1039192, 39, 0, 0, 0, 0, 22.794118, 395.087149
11, 112265, 6, 0, 0, 0, 0, 34.545455, 245.750239
16, 0, 0, 0, 0, 0, 0, 24.166667, 376.022351
17, 1263085, 41, 0, 0, 0, 0, 22.794118, 395.166111
