\select@language {russian}
\contentsline {section}{\numberline {1}\IeC {\CYRV }\IeC {\cyrv }\IeC {\cyre }\IeC {\cyrd }\IeC {\cyre }\IeC {\cyrn }\IeC {\cyri }\IeC {\cyre }}{3}{section.1}
\contentsline {subsection}{\numberline {1.1}\IeC {\CYRP }\IeC {\cyrr }\IeC {\cyro }\IeC {\cyrg }\IeC {\cyrr }\IeC {\cyra }\IeC {\cyrm }\IeC {\cyrm }\IeC {\cyrn }\IeC {\cyro }-\IeC {\cyrk }\IeC {\cyro }\IeC {\cyrn }\IeC {\cyrf }\IeC {\cyri }\IeC {\cyrg }\IeC {\cyru }\IeC {\cyrr }\IeC {\cyri }\IeC {\cyrr }\IeC {\cyru }\IeC {\cyre }\IeC {\cyrm }\IeC {\cyrery }\IeC {\cyre } \IeC {\cyrs }\IeC {\cyre }\IeC {\cyrt }\IeC {\cyri }}{3}{subsection.1.1}
\contentsline {subsection}{\numberline {1.2}OpenFlow}{3}{subsection.1.2}
\contentsline {subsection}{\numberline {1.3}\IeC {\CYRP }\IeC {\cyrr }\IeC {\cyro }\IeC {\cyrg }\IeC {\cyrr }\IeC {\cyra }\IeC {\cyrm }\IeC {\cyrm }\IeC {\cyri }\IeC {\cyrr }\IeC {\cyro }\IeC {\cyrv }\IeC {\cyra }\IeC {\cyrn }\IeC {\cyri }\IeC {\cyre } \IeC {\cyrd }\IeC {\cyrl }\IeC {\cyrya } \IeC {\cyrp }\IeC {\cyrr }\IeC {\cyri }\IeC {\cyrl }\IeC {\cyro }\IeC {\cyrzh }\IeC {\cyre }\IeC {\cyrn }\IeC {\cyri }\IeC {\cyrishrt } \IeC {\CYRP }\IeC {\CYRK }\IeC {\CYRS }}{5}{subsection.1.3}
\contentsline {subsection}{\numberline {1.4}\IeC {\CYRK }\IeC {\cyro }\IeC {\cyrm }\IeC {\cyrp }\IeC {\cyro }\IeC {\cyrz }\IeC {\cyri }\IeC {\cyrc }\IeC {\cyri }\IeC {\cyrya } \IeC {\cyrp }\IeC {\cyrr }\IeC {\cyri }\IeC {\cyrl }\IeC {\cyro }\IeC {\cyrzh }\IeC {\cyre }\IeC {\cyrn }\IeC {\cyri }\IeC {\cyrishrt }}{6}{subsection.1.4}
\contentsline {section}{\numberline {2}\IeC {\CYRC }\IeC {\cyre }\IeC {\cyrl }\IeC {\cyri } \IeC {\cyri } \IeC {\cyrz }\IeC {\cyra }\IeC {\cyrd }\IeC {\cyra }\IeC {\cyrch }\IeC {\cyri }}{8}{section.2}
\contentsline {subsection}{\numberline {2.1}\IeC {\CYRC }\IeC {\cyre }\IeC {\cyrl }\IeC {\cyrsftsn } \IeC {\cyrr }\IeC {\cyra }\IeC {\cyrb }\IeC {\cyro }\IeC {\cyrt }\IeC {\cyrery }}{8}{subsection.2.1}
\contentsline {subsection}{\numberline {2.2}\IeC {\CYRT }\IeC {\cyrr }\IeC {\cyre }\IeC {\cyrb }\IeC {\cyro }\IeC {\cyrv }\IeC {\cyra }\IeC {\cyrn }\IeC {\cyri }\IeC {\cyrya } \IeC {\cyrk } \IeC {\cyrs }\IeC {\cyri }\IeC {\cyrs }\IeC {\cyrt }\IeC {\cyre }\IeC {\cyrm }\IeC {\cyre }}{8}{subsection.2.2}
\contentsline {subsection}{\numberline {2.3}\IeC {\CYRZ }\IeC {\cyra }\IeC {\cyrd }\IeC {\cyra }\IeC {\cyrch }\IeC {\cyri } \IeC {\cyrk }\IeC {\cyru }\IeC {\cyrr }\IeC {\cyrs }\IeC {\cyro }\IeC {\cyrv }\IeC {\cyro }\IeC {\cyrishrt } \IeC {\cyrr }\IeC {\cyra }\IeC {\cyrb }\IeC {\cyro }\IeC {\cyrt }\IeC {\cyrery }}{8}{subsection.2.3}
\contentsline {section}{\numberline {3}\IeC {\CYRO }\IeC {\cyrb }\IeC {\cyrz }\IeC {\cyro }\IeC {\cyrr } \IeC {\cyrya }\IeC {\cyrz }\IeC {\cyrery }\IeC {\cyrk }\IeC {\cyro }\IeC {\cyrv } \IeC {\cyrp }\IeC {\cyrr }\IeC {\cyro }\IeC {\cyrg }\IeC {\cyrr }\IeC {\cyra }\IeC {\cyrm }\IeC {\cyrm }\IeC {\cyri }\IeC {\cyrr }\IeC {\cyro }\IeC {\cyrv }\IeC {\cyra }\IeC {\cyrn }\IeC {\cyri }\IeC {\cyrya } \IeC {\cyrd }\IeC {\cyrl }\IeC {\cyrya } \IeC {\cyrp }\IeC {\cyrr }\IeC {\cyri }\IeC {\cyrl }\IeC {\cyro }\IeC {\cyrzh }\IeC {\cyre }\IeC {\cyrn }\IeC {\cyri }\IeC {\cyrishrt } \IeC {\CYRP }\IeC {\CYRK }\IeC {\CYRS }}{9}{section.3}
\contentsline {subsection}{\numberline {3.1}\IeC {\CYRK }\IeC {\cyrr }\IeC {\cyri }\IeC {\cyrt }\IeC {\cyre }\IeC {\cyrr }\IeC {\cyri }\IeC {\cyri } \IeC {\cyro }\IeC {\cyrb }\IeC {\cyrz }\IeC {\cyro }\IeC {\cyrr }\IeC {\cyra }}{9}{subsection.3.1}
\contentsline {subsubsection}{\numberline {3.1.1}\IeC {\CYRS }\IeC {\cyrp }\IeC {\cyro }\IeC {\cyrs }\IeC {\cyro }\IeC {\cyrb } \IeC {\cyru }\IeC {\cyrs }\IeC {\cyrt }\IeC {\cyra }\IeC {\cyrn }\IeC {\cyro }\IeC {\cyrv }\IeC {\cyrk }\IeC {\cyri } \IeC {\cyrp }\IeC {\cyro }\IeC {\cyrt }\IeC {\cyro }\IeC {\cyrk }\IeC {\cyro }\IeC {\cyrv }}{9}{subsubsection.3.1.1}
\contentsline {subsubsection}{\numberline {3.1.2}\IeC {\CYRS }\IeC {\cyrp }\IeC {\cyro }\IeC {\cyrs }\IeC {\cyro }\IeC {\cyrb } \IeC {\cyrz }\IeC {\cyra }\IeC {\cyrd }\IeC {\cyra }\IeC {\cyrn }\IeC {\cyri }\IeC {\cyri } \IeC {\cyrp }\IeC {\cyro }\IeC {\cyrl }\IeC {\cyri }\IeC {\cyrt }\IeC {\cyri }\IeC {\cyrk }}{10}{subsubsection.3.1.2}
\contentsline {subsubsection}{\numberline {3.1.3}\IeC {\CYRP }\IeC {\cyra }\IeC {\cyrr }\IeC {\cyra }\IeC {\cyrd }\IeC {\cyri }\IeC {\cyrg }\IeC {\cyrm }\IeC {\cyra } \IeC {\cyrp }\IeC {\cyrr }\IeC {\cyro }\IeC {\cyrg }\IeC {\cyrr }\IeC {\cyra }\IeC {\cyrm }\IeC {\cyrm }\IeC {\cyri }\IeC {\cyrr }\IeC {\cyro }\IeC {\cyrv }\IeC {\cyra }\IeC {\cyrn }\IeC {\cyri }\IeC {\cyrya }}{10}{subsubsection.3.1.3}
\contentsline {subparagraph}{\IeC {\CYRI }\IeC {\cyrm }\IeC {\cyrp }\IeC {\cyre }\IeC {\cyrr }\IeC {\cyra }\IeC {\cyrt }\IeC {\cyri }\IeC {\cyrv }\IeC {\cyrn }\IeC {\cyra }\IeC {\cyrya } \IeC {\cyrp }\IeC {\cyra }\IeC {\cyrr }\IeC {\cyra }\IeC {\cyrd }\IeC {\cyri }\IeC {\cyrg }\IeC {\cyrm }\IeC {\cyra }}{10}{section*.2}
\contentsline {subparagraph}{\IeC {\CYRD }\IeC {\cyre }\IeC {\cyrk }\IeC {\cyrl }\IeC {\cyra }\IeC {\cyrr }\IeC {\cyra }\IeC {\cyrt }\IeC {\cyri }\IeC {\cyrv }\IeC {\cyrn }\IeC {\cyra }\IeC {\cyrya } \IeC {\cyrp }\IeC {\cyra }\IeC {\cyrr }\IeC {\cyra }\IeC {\cyrd }\IeC {\cyri }\IeC {\cyrg }\IeC {\cyrm }\IeC {\cyra }}{10}{section*.3}
\contentsline {subsection}{\numberline {3.2}\IeC {\CYRP }\IeC {\cyrr }\IeC {\cyro }\IeC {\cyrg }\IeC {\cyrr }\IeC {\cyra }\IeC {\cyrm }\IeC {\cyrm }\IeC {\cyri }\IeC {\cyrr }\IeC {\cyro }\IeC {\cyrv }\IeC {\cyra }\IeC {\cyrn }\IeC {\cyri }\IeC {\cyre } \IeC {\cyrs } \IeC {\cyra }\IeC {\cyrb }\IeC {\cyrs }\IeC {\cyrt }\IeC {\cyrr }\IeC {\cyra }\IeC {\cyrk }\IeC {\cyrc }\IeC {\cyri }\IeC {\cyrya }\IeC {\cyrm }\IeC {\cyri } OpenFlow}{10}{subsection.3.2}
\contentsline {subsection}{\numberline {3.3}Maple}{11}{subsection.3.3}
\contentsline {subsubsection}{\numberline {3.3.1}\IeC {\CYRR }\IeC {\cyre }\IeC {\cyra }\IeC {\cyrl }\IeC {\cyri }\IeC {\cyrz }\IeC {\cyra }\IeC {\cyrc }\IeC {\cyri }\IeC {\cyrya }}{12}{subsubsection.3.3.1}
\contentsline {subsection}{\numberline {3.4}Frenetic}{14}{subsection.3.4}
\contentsline {subsubsection}{\numberline {3.4.1}\IeC {\CYRR }\IeC {\cyre }\IeC {\cyra }\IeC {\cyrl }\IeC {\cyri }\IeC {\cyrz }\IeC {\cyra }\IeC {\cyrc }\IeC {\cyri }\IeC {\cyrya }}{15}{subsubsection.3.4.1}
\contentsline {subsection}{\numberline {3.5}\IeC {\CYRV }\IeC {\cyrery }\IeC {\cyrv }\IeC {\cyro }\IeC {\cyrd }\IeC {\cyrery }}{15}{subsection.3.5}
\contentsline {section}{\numberline {4}\IeC {\CYRP }\IeC {\cyrr }\IeC {\cyre }\IeC {\cyrd }\IeC {\cyrl }\IeC {\cyro }\IeC {\cyrzh }\IeC {\cyre }\IeC {\cyrn }\IeC {\cyrn }\IeC {\cyra }\IeC {\cyrya } \IeC {\cyri }\IeC {\cyrd }\IeC {\cyre }\IeC {\cyrya }}{18}{section.4}
\contentsline {subsection}{\numberline {4.1}\IeC {\CYRI }\IeC {\cyrn }\IeC {\cyrt }\IeC {\cyre }\IeC {\cyrr }\IeC {\cyrf }\IeC {\cyre }\IeC {\cyrishrt }\IeC {\cyrs }}{18}{subsection.4.1}
\contentsline {subsection}{\numberline {4.2}\IeC {\CYRK }\IeC {\cyro }\IeC {\cyrm }\IeC {\cyrp }\IeC {\cyri }\IeC {\cyrl }\IeC {\cyrya }\IeC {\cyrc }\IeC {\cyri }\IeC {\cyrya } \IeC {\cyrp }\IeC {\cyro }\IeC {\cyrl }\IeC {\cyri }\IeC {\cyrt }\IeC {\cyri }\IeC {\cyrk }\IeC {\cyri }}{19}{subsection.4.2}
\contentsline {section}{\numberline {5}\IeC {\CYRR }\IeC {\cyre }\IeC {\cyra }\IeC {\cyrl }\IeC {\cyri }\IeC {\cyrz }\IeC {\cyra }\IeC {\cyrc }\IeC {\cyri }\IeC {\cyrya }}{24}{section.5}
\contentsline {section}{\numberline {6}\IeC {\CYREREV }\IeC {\cyrk }\IeC {\cyrs }\IeC {\cyrp }\IeC {\cyre }\IeC {\cyrr }\IeC {\cyri }\IeC {\cyrm }\IeC {\cyre }\IeC {\cyrn }\IeC {\cyrt }\IeC {\cyra }\IeC {\cyrl }\IeC {\cyrsftsn }\IeC {\cyrn }\IeC {\cyro }\IeC {\cyre } \IeC {\cyri }\IeC {\cyrs }\IeC {\cyrs }\IeC {\cyrl }\IeC {\cyre }\IeC {\cyrd }\IeC {\cyro }\IeC {\cyrv }\IeC {\cyra }\IeC {\cyrn }\IeC {\cyri }\IeC {\cyre }}{25}{section.6}
\contentsline {subsection}{\numberline {6.1}\IeC {\CYRC }\IeC {\cyre }\IeC {\cyrl }\IeC {\cyrsftsn } \IeC {\cyri }\IeC {\cyrs }\IeC {\cyrs }\IeC {\cyrl }\IeC {\cyre }\IeC {\cyrd }\IeC {\cyro }\IeC {\cyrv }\IeC {\cyra }\IeC {\cyrn }\IeC {\cyri }\IeC {\cyrya }}{25}{subsection.6.1}
\contentsline {subsection}{\numberline {6.2}\IeC {\CYRT }\IeC {\cyre }\IeC {\cyrs }\IeC {\cyrt }\IeC {\cyro }\IeC {\cyrv }\IeC {\cyro }\IeC {\cyre } \IeC {\cyro }\IeC {\cyrk }\IeC {\cyrr }\IeC {\cyru }\IeC {\cyrzh }\IeC {\cyre }\IeC {\cyrn }\IeC {\cyri }\IeC {\cyre } \IeC {\cyro }\IeC {\cyrk }\IeC {\cyrr }\IeC {\cyru }\IeC {\cyrzh }\IeC {\cyre }\IeC {\cyrn }\IeC {\cyri }\IeC {\cyre } \IeC {\cyri } \IeC {\cyrr }\IeC {\cyre }\IeC {\cyrz }\IeC {\cyru }\IeC {\cyrl }\IeC {\cyrsftsn }\IeC {\cyrt }\IeC {\cyra }\IeC {\cyrt }\IeC {\cyrery }}{25}{subsection.6.2}
\contentsline {section}{\numberline {7}\IeC {\CYRZ }\IeC {\cyra }\IeC {\cyrk }\IeC {\cyrl }\IeC {\cyryu }\IeC {\cyrch }\IeC {\cyre }\IeC {\cyrn }\IeC {\cyri }\IeC {\cyre } \IeC {\cyri } \IeC {\cyrd }\IeC {\cyra }\IeC {\cyrl }\IeC {\cyrsftsn }\IeC {\cyrn }\IeC {\cyre }\IeC {\cyrishrt }\IeC {\cyrsh }\IeC {\cyra }\IeC {\cyrya } \IeC {\cyrr }\IeC {\cyra }\IeC {\cyrb }\IeC {\cyro }\IeC {\cyrt }\IeC {\cyra }}{27}{section.7}
\contentsline {section}{{\cyrillictext \CYRL \cyri \cyrt \cyre \cyrr \cyra \cyrt \cyru \cyrr \cyra }}{28}{section*.4}
