\BOOKMARK [1][-]{section.1}{\376\377\004\022\004\062\004\065\004\064\004\065\004\075\004\070\004\065}{}% 1
\BOOKMARK [2][-]{subsection.1.1}{\376\377\004\037\004\100\004\076\004\063\004\100\004\060\004\074\004\074\004\075\004\076\000-\004\072\004\076\004\075\004\104\004\070\004\063\004\103\004\100\004\070\004\100\004\103\004\065\004\074\004\113\004\065\000\040\004\101\004\065\004\102\004\070}{section.1}% 2
\BOOKMARK [2][-]{subsection.1.2}{\376\377\000O\000p\000e\000n\000F\000l\000o\000w}{section.1}% 3
\BOOKMARK [2][-]{subsection.1.3}{\376\377\004\037\004\100\004\076\004\063\004\100\004\060\004\074\004\074\004\070\004\100\004\076\004\062\004\060\004\075\004\070\004\065\000\040\004\064\004\073\004\117\000\040\004\077\004\100\004\070\004\073\004\076\004\066\004\065\004\075\004\070\004\071\000\040\004\037\004\032\004\041}{section.1}% 4
\BOOKMARK [2][-]{subsection.1.4}{\376\377\004\032\004\076\004\074\004\077\004\076\004\067\004\070\004\106\004\070\004\117\000\040\004\077\004\100\004\070\004\073\004\076\004\066\004\065\004\075\004\070\004\071}{section.1}% 5
\BOOKMARK [1][-]{section.2}{\376\377\004\046\004\065\004\073\004\070\000\040\004\070\000\040\004\067\004\060\004\064\004\060\004\107\004\070}{}% 6
\BOOKMARK [2][-]{subsection.2.1}{\376\377\004\046\004\065\004\073\004\114\000\040\004\100\004\060\004\061\004\076\004\102\004\113}{section.2}% 7
\BOOKMARK [2][-]{subsection.2.2}{\376\377\004\042\004\100\004\065\004\061\004\076\004\062\004\060\004\075\004\070\004\117\000\040\004\072\000\040\004\101\004\070\004\101\004\102\004\065\004\074\004\065}{section.2}% 8
\BOOKMARK [2][-]{subsection.2.3}{\376\377\004\027\004\060\004\064\004\060\004\107\004\070\000\040\004\072\004\103\004\100\004\101\004\076\004\062\004\076\004\071\000\040\004\100\004\060\004\061\004\076\004\102\004\113}{section.2}% 9
\BOOKMARK [1][-]{section.3}{\376\377\004\036\004\061\004\067\004\076\004\100\000\040\004\117\004\067\004\113\004\072\004\076\004\062\000\040\004\077\004\100\004\076\004\063\004\100\004\060\004\074\004\074\004\070\004\100\004\076\004\062\004\060\004\075\004\070\004\117\000\040\004\064\004\073\004\117\000\040\004\077\004\100\004\070\004\073\004\076\004\066\004\065\004\075\004\070\004\071\000\040\004\037\004\032\004\041}{}% 10
\BOOKMARK [2][-]{subsection.3.1}{\376\377\004\032\004\100\004\070\004\102\004\065\004\100\004\070\004\070\000\040\004\076\004\061\004\067\004\076\004\100\004\060}{section.3}% 11
\BOOKMARK [2][-]{subsection.3.2}{\376\377\004\037\004\100\004\076\004\063\004\100\004\060\004\074\004\074\004\070\004\100\004\076\004\062\004\060\004\075\004\070\004\065\000\040\004\101\000\040\004\060\004\061\004\101\004\102\004\100\004\060\004\072\004\106\004\070\004\117\004\074\004\070\000\040\000O\000p\000e\000n\000F\000l\000o\000w}{section.3}% 12
\BOOKMARK [2][-]{subsection.3.3}{\376\377\000M\000a\000p\000l\000e}{section.3}% 13
\BOOKMARK [2][-]{subsection.3.4}{\376\377\000F\000r\000e\000n\000e\000t\000i\000c}{section.3}% 14
\BOOKMARK [2][-]{subsection.3.5}{\376\377\004\022\004\113\004\062\004\076\004\064\004\113}{section.3}% 15
\BOOKMARK [1][-]{section.4}{\376\377\004\037\004\100\004\065\004\064\004\073\004\076\004\066\004\065\004\075\004\075\004\060\004\117\000\040\004\070\004\064\004\065\004\117}{}% 16
\BOOKMARK [2][-]{subsection.4.1}{\376\377\004\030\004\075\004\102\004\065\004\100\004\104\004\065\004\071\004\101}{section.4}% 17
\BOOKMARK [2][-]{subsection.4.2}{\376\377\004\032\004\076\004\074\004\077\004\070\004\073\004\117\004\106\004\070\004\117\000\040\004\077\004\076\004\073\004\070\004\102\004\070\004\072\004\070}{section.4}% 18
\BOOKMARK [1][-]{section.5}{\376\377\004\040\004\065\004\060\004\073\004\070\004\067\004\060\004\106\004\070\004\117}{}% 19
\BOOKMARK [1][-]{section.6}{\376\377\004\055\004\072\004\101\004\077\004\065\004\100\004\070\004\074\004\065\004\075\004\102\004\060\004\073\004\114\004\075\004\076\004\065\000\040\004\070\004\101\004\101\004\073\004\065\004\064\004\076\004\062\004\060\004\075\004\070\004\065}{}% 20
\BOOKMARK [2][-]{subsection.6.1}{\376\377\004\046\004\065\004\073\004\114\000\040\004\070\004\101\004\101\004\073\004\065\004\064\004\076\004\062\004\060\004\075\004\070\004\117}{section.6}% 21
\BOOKMARK [2][-]{subsection.6.2}{\376\377\004\042\004\065\004\101\004\102\004\076\004\062\004\076\004\065\000\040\004\076\004\072\004\100\004\103\004\066\004\065\004\075\004\070\004\065\000\040\004\076\004\072\004\100\004\103\004\066\004\065\004\075\004\070\004\065\000\040\004\070\000\040\004\100\004\065\004\067\004\103\004\073\004\114\004\102\004\060\004\102\004\113}{section.6}% 22
\BOOKMARK [1][-]{section.7}{\376\377\004\027\004\060\004\072\004\073\004\116\004\107\004\065\004\075\004\070\004\065\000\040\004\070\000\040\004\064\004\060\004\073\004\114\004\075\004\065\004\071\004\110\004\060\004\117\000\040\004\100\004\060\004\061\004\076\004\102\004\060}{}% 23
\BOOKMARK [1][-]{section*.4}{\376\377\004\033\004\070\004\102\004\065\004\100\004\060\004\102\004\103\004\100\004\060}{}% 24
